{
  "service_name" : "SiLA2StdFeatures",
  "service_description": "SiLA2 standard services",
  "authors"      : "mark doerr",
  "creation_date" : "",
  "version" : "0.0.1",
  "vendor_url" : "lara.uni-greifswald.de",
  "SiLA_standard_feature_list" : ["SiLAService"],
  "SiLA_feature_list" : ["SimulationController", "SiLAService"],
  "languages" : ["python", "javascript"],
  "communication_port" : "55001",
  "IP_address" : "127.0.0.1",
  "hostname" : "localhost"
}
